module websocket-server

go 1.20

require github.com/fasthttp/websocket v1.5.7

require (
	github.com/andybalholm/brotli v1.0.5 // indirect
	github.com/klauspost/compress v1.17.3 // indirect
	github.com/savsgio/gotils v0.0.0-20230208104028-c358bd845dee // indirect
	github.com/valyala/bytebufferpool v1.0.0 // indirect
	github.com/valyala/fasthttp v1.51.0 // indirect
	golang.org/x/net v0.18.0 // indirect
)
